0000000: 0000 0cb0 0046 0181 0000 0000 6f6c 6473  .....F......olds
0000010: 6368 6f6f 6c38 352e 7275 6e65 7363 6170  chool85.runescap
0000020: 652e 636f 6d00 2d00 0001 c501 8900 0000  e.com.-.........
0000030: 006f 6c64 7363 686f 6f6c 3933 2e72 756e  .oldschool93.run
0000040: 6573 6361 7065 2e63 6f6d 0043 6c61 6e20  escape.com.Clan 
0000050: 5761 7273 202d 2046 7265 6500 0001 d501  Wars - Free.....
0000060: 8a00 0000 006f 6c64 7363 686f 6f6c 3934  .....oldschool94
0000070: 2e72 756e 6573 6361 7065 2e63 6f6d 002d  .runescape.com.-
0000080: 0000 01e2 012d 0000 0000 6f6c 6473 6368  .....-....oldsch
0000090: 6f6f 6c31 2e72 756e 6573 6361 7065 2e63  ool1.runescape.c
00000a0: 6f6d 0054 7261 6465 202d 2046 7265 6500  om.Trade - Free.
00000b0: 0003 6c01 4f00 0000 006f 6c64 7363 686f  ..l.O....oldscho
00000c0: 6f6c 3335 2e72 756e 6573 6361 7065 2e63  ol35.runescape.c
00000d0: 6f6d 002d 0007 018a 0180 0000 0000 6f6c  om.-..........ol
00000e0: 6473 6368 6f6f 6c38 342e 7275 6e65 7363  dschool84.runesc
00000f0: 6170 652e 636f 6d00 2d00 0701 a001 7f00  ape.com.-.......
0000100: 0000 006f 6c64 7363 686f 6f6c 3833 2e72  ...oldschool83.r
0000110: 756e 6573 6361 7065 2e63 6f6d 002d 0007  unescape.com.-..
0000120: 01c3 0146 0000 4000 6f6c 6473 6368 6f6f  ...F..@.oldschoo
0000130: 6c32 362e 7275 6e65 7363 6170 652e 636f  l26.runescape.co
0000140: 6d00 4c4d 5320 4361 7375 616c 0001 0189  m.LMS Casual....
0000150: 013c 0000 0000 6f6c 6473 6368 6f6f 6c31  .<....oldschool1
0000160: 362e 7275 6e65 7363 6170 652e 636f 6d00  6.runescape.com.
0000170: 5769 6c64 6572 6e65 7373 2050 4b20 2d20  Wilderness PK - 
0000180: 6672 6565 2073 7479 6c65 0001 01a5 017d  free style.....}
0000190: 0000 0000 6f6c 6473 6368 6f6f 6c38 312e  ....oldschool81.
00001a0: 7275 6e65 7363 6170 652e 636f 6d00 2d00  runescape.com.-.
00001b0: 0102 0101 7e00 0000 006f 6c64 7363 686f  ....~....oldscho
00001c0: 6f6c 3832 2e72 756e 6573 6361 7065 2e63  ol82.runescape.c
00001d0: 6f6d 002d 0001 029b 0134 0000 0000 6f6c  om.-.....4....ol
00001e0: 6473 6368 6f6f 6c38 2e72 756e 6573 6361  dschool8.runesca
00001f0: 7065 2e63 6f6d 0057 696c 6465 726e 6573  pe.com.Wildernes
0000200: 7320 504b 202d 2066 7265 6520 7374 796c  s PK - free styl
0000210: 6500 0102 ad01 7a60 0000 016f 6c64 7363  e.....z`...oldsc
0000220: 686f 6f6c 3738 2e72 756e 6573 6361 7065  hool78.runescape
0000230: 2e63 6f6d 0044 6561 646d 616e 2053 6561  .com.Deadman Sea
0000240: 736f 6e61 6c00 0000 2801 5920 0000 016f  sonal...(.Y ...o
0000250: 6c64 7363 686f 6f6c 3435 2e72 756e 6573  ldschool45.runes
0000260: 6361 7065 2e63 6f6d 0044 6561 646d 616e  cape.com.Deadman
0000270: 0000 004a 0151 0000 0405 6f6c 6473 6368  ...J.Q....oldsch
0000280: 6f6f 6c33 372e 7275 6e65 7363 6170 652e  ool37.runescape.
0000290: 636f 6d00 5056 5020 576f 726c 6420 2d20  com.PVP World - 
00002a0: 4869 6768 2052 6973 6b00 0000 7101 6900  High Risk...q.i.
00002b0: 0400 016f 6c64 7363 686f 6f6c 3631 2e72  ...oldschool61.r
00002c0: 756e 6573 6361 7065 2e63 6f6d 0032 3030  unescape.com.200
00002d0: 3020 736b 696c 6c20 746f 7461 6c00 0000  0 skill total...
00002e0: ad01 4100 0040 016f 6c64 7363 686f 6f6c  ..A..@.oldschool
00002f0: 3231 2e72 756e 6573 6361 7065 2e63 6f6d  21.runescape.com
0000300: 004c 4d53 2043 6f6d 7065 7469 7469 7665  .LMS Competitive
0000310: 0000 0125 0171 0000 0001 6f6c 6473 6368  ...%.q....oldsch
0000320: 6f6f 6c36 392e 7275 6e65 7363 6170 652e  ool69.runescape.
0000330: 636f 6d00 5769 6c64 6572 6e65 7373 2050  com.Wilderness P
0000340: 4b20 2d20 6d65 6d62 6572 7300 0001 8101  K - members.....
0000350: 6108 0000 016f 6c64 7363 686f 6f6c 3533  a....oldschool53
0000360: 2e72 756e 6573 6361 7065 2e63 6f6d 0031  .runescape.com.1
0000370: 3235 3020 736b 696c 6c20 746f 7461 6c00  250 skill total.
0000380: 0001 9501 4200 0000 016f 6c64 7363 686f  ....B....oldscho
0000390: 6f6c 3232 2e72 756e 6573 6361 7065 2e63  ol22.runescape.c
00003a0: 6f6d 0044 7565 6c20 4172 656e 6100 0001  om.Duel Arena...
00003b0: 9801 6a00 0000 016f 6c64 7363 686f 6f6c  ..j....oldschool
00003c0: 3632 2e72 756e 6573 6361 7065 2e63 6f6d  62.runescape.com
00003d0: 0050 7972 616d 6964 2050 6c75 6e64 6572  .Pyramid Plunder
00003e0: 0000 019c 013a 0000 0001 6f6c 6473 6368  .....:....oldsch
00003f0: 6f6f 6c31 342e 7275 6e65 7363 6170 652e  ool14.runescape.
0000400: 636f 6d00 446f 7267 6573 682d 4b61 616e  com.Dorgesh-Kaan
0000410: 2041 6769 6c69 7479 0000 019d 0139 0000   Agility.....9..
0000420: 0001 6f6c 6473 6368 6f6f 6c31 332e 7275  ..oldschool13.ru
0000430: 6e65 7363 6170 652e 636f 6d00 2d00 0001  nescape.com.-...
0000440: a201 5a00 0000 016f 6c64 7363 686f 6f6c  ..Z....oldschool
0000450: 3436 2e72 756e 6573 6361 7065 2e63 6f6d  46.runescape.com
0000460: 0041 6769 6c69 7479 2074 7261 696e 696e  .Agility trainin
0000470: 6700 0001 aa01 6200 0000 016f 6c64 7363  g.....b....oldsc
0000480: 686f 6f6c 3534 2e72 756e 6573 6361 7065  hool54.runescape
0000490: 2e63 6f6d 0043 6173 746c 6520 5761 7273  .com.Castle Wars
00004a0: 2032 0000 01ac 0152 0000 0001 6f6c 6473   2.....R....olds
00004b0: 6368 6f6f 6c33 382e 7275 6e65 7363 6170  chool38.runescap
00004c0: 652e 636f 6d00 2d00 0001 d101 8200 0000  e.com.-.........
00004d0: 016f 6c64 7363 686f 6f6c 3836 2e72 756e  .oldschool86.run
00004e0: 6573 6361 7065 2e63 6f6d 002d 0000 01e7  escape.com.-....
00004f0: 0132 0000 0001 6f6c 6473 6368 6f6f 6c36  .2....oldschool6
0000500: 2e72 756e 6573 6361 7065 2e63 6f6d 0042  .runescape.com.B
0000510: 6172 6261 7269 616e 2041 7373 6175 6c74  arbarian Assault
0000520: 0000 0239 0179 0000 0001 6f6c 6473 6368  ...9.y....oldsch
0000530: 6f6f 6c37 372e 7275 6e65 7363 6170 652e  ool77.runescape.
0000540: 636f 6d00 4d6f 7274 2774 6f6e 2074 656d  com.Mort'ton tem
0000550: 706c 652c 2052 6174 2050 6974 7300 0002  ple, Rat Pits...
0000560: 6701 7200 0000 016f 6c64 7363 686f 6f6c  g.r....oldschool
0000570: 3730 2e72 756e 6573 6361 7065 2e63 6f6d  70.runescape.com
0000580: 0046 6973 6869 6e67 2054 7261 776c 6572  .Fishing Trawler
0000590: 0000 0326 0131 0000 0001 6f6c 6473 6368  ...&.1....oldsch
00005a0: 6f6f 6c35 2e72 756e 6573 6361 7065 2e63  ool5.runescape.c
00005b0: 6f6d 0046 616c 6164 6f72 2050 6172 7479  om.Falador Party
00005c0: 2052 6f6f 6d00 0003 2f01 4a00 0000 016f   Room.../.J....o
00005d0: 6c64 7363 686f 6f6c 3330 2e72 756e 6573  ldschool30.runes
00005e0: 6361 7065 2e63 6f6d 0048 6f75 7365 2050  cape.com.House P
00005f0: 6172 7479 2c20 4769 6c64 6564 2041 6c74  arty, Gilded Alt
0000600: 6172 0000 0338 0149 0000 0001 6f6c 6473  ar...8.I....olds
0000610: 6368 6f6f 6c32 392e 7275 6e65 7363 6170  chool29.runescap
0000620: 652e 636f 6d00 436c 616e 2057 6172 7320  e.com.Clan Wars 
0000630: 2d20 4d65 6d62 6572 7300 0005 da01 3000  - Members.....0.
0000640: 0000 016f 6c64 7363 686f 6f6c 342e 7275  ...oldschool4.ru
0000650: 6e65 7363 6170 652e 636f 6d00 5472 6f75  nescape.com.Trou
0000660: 626c 6520 4272 6577 696e 6700 0701 2301  ble Brewing...#.
0000670: 6000 0000 016f 6c64 7363 686f 6f6c 3532  `....oldschool52
0000680: 2e72 756e 6573 6361 7065 2e63 6f6d 002d  .runescape.com.-
0000690: 0007 0127 0167 0000 0001 6f6c 6473 6368  ...'.g....oldsch
00006a0: 6f6f 6c35 392e 7275 6e65 7363 6170 652e  ool59.runescape.
00006b0: 636f 6d00 2d00 0701 2801 6800 0000 016f  com.-...(.h....o
00006c0: 6c64 7363 686f 6f6c 3630 2e72 756e 6573  ldschool60.runes
00006d0: 6361 7065 2e63 6f6d 002d 0007 012e 0170  cape.com.-.....p
00006e0: 0000 0001 6f6c 6473 6368 6f6f 6c36 382e  ....oldschool68.
00006f0: 7275 6e65 7363 6170 652e 636f 6d00 2d00  runescape.com.-.
0000700: 0701 2e01 5f00 0000 016f 6c64 7363 686f  ...._....oldscho
0000710: 6f6c 3531 2e72 756e 6573 6361 7065 2e63  ol51.runescape.c
0000720: 6f6d 002d 0007 0130 016f 0000 0001 6f6c  om.-...0.o....ol
0000730: 6473 6368 6f6f 6c36 372e 7275 6e65 7363  dschool67.runesc
0000740: 6170 652e 636f 6d00 4772 6f75 7020 5175  ape.com.Group Qu
0000750: 6573 7469 6e67 0007 0132 0148 0000 0001  esting...2.H....
0000760: 6f6c 6473 6368 6f6f 6c32 382e 7275 6e65  oldschool28.rune
0000770: 7363 6170 652e 636f 6d00 2d00 0701 3401  scape.com.-...4.
0000780: 7700 0000 016f 6c64 7363 686f 6f6c 3735  w....oldschool75
0000790: 2e72 756e 6573 6361 7065 2e63 6f6d 0042  .runescape.com.B
00007a0: 6172 6261 7269 616e 2046 6973 6869 6e67  arbarian Fishing
00007b0: 0007 0134 0150 0000 0001 6f6c 6473 6368  ...4.P....oldsch
00007c0: 6f6f 6c33 362e 7275 6e65 7363 6170 652e  ool36.runescape.
00007d0: 636f 6d00 5275 6e6e 696e 6720 2d20 6e61  com.Running - na
00007e0: 7475 7265 2072 756e 6500 0701 3701 5700  ture rune...7.W.
00007f0: 0000 016f 6c64 7363 686f 6f6c 3433 2e72  ...oldschool43.r
0000800: 756e 6573 6361 7065 2e63 6f6d 002d 0007  unescape.com.-..
0000810: 0137 0140 0000 0001 6f6c 6473 6368 6f6f  .7.@....oldschoo
0000820: 6c32 302e 7275 6e65 7363 6170 652e 636f  l20.runescape.co
0000830: 6d00 2d00 0701 4801 3800 0000 016f 6c64  m.-...H.8....old
0000840: 7363 686f 6f6c 3132 2e72 756e 6573 6361  school12.runesca
0000850: 7065 2e63 6f6d 002d 0007 0149 0178 0000  pe.com.-...I.x..
0000860: 0001 6f6c 6473 6368 6f6f 6c37 362e 7275  ..oldschool76.ru
0000870: 6e65 7363 6170 652e 636f 6d00 2d00 0701  nescape.com.-...
0000880: 5c01 4700 0000 016f 6c64 7363 686f 6f6c  \.G....oldschool
0000890: 3237 2e72 756e 6573 6361 7065 2e63 6f6d  27.runescape.com
00008a0: 002d 0007 015f 0137 0000 0001 6f6c 6473  .-..._.7....olds
00008b0: 6368 6f6f 6c31 312e 7275 6e65 7363 6170  chool11.runescap
00008c0: 652e 636f 6d00 2d00 0701 7601 3f00 0000  e.com.-...v.?...
00008d0: 016f 6c64 7363 686f 6f6c 3139 2e72 756e  .oldschool19.run
00008e0: 6573 6361 7065 2e63 6f6d 002d 0007 019d  escape.com.-....
00008f0: 012f 0000 0001 6f6c 6473 6368 6f6f 6c33  ./....oldschool3
0000900: 2e72 756e 6573 6361 7065 2e63 6f6d 002d  .runescape.com.-
0000910: 0007 0286 0158 0000 0001 6f6c 6473 6368  .....X....oldsch
0000920: 6f6f 6c34 342e 7275 6e65 7363 6170 652e  ool44.runescape.
0000930: 636f 6d00 5065 7374 2043 6f6e 7472 6f6c  com.Pest Control
0000940: 0007 02f4 015d 0004 0001 6f6c 6473 6368  .....]....oldsch
0000950: 6f6f 6c34 392e 7275 6e65 7363 6170 652e  ool49.runescape.
0000960: 636f 6d00 3230 3030 2073 6b69 6c6c 2074  com.2000 skill t
0000970: 6f74 616c 0001 0083 0145 0000 0005 6f6c  otal.....E....ol
0000980: 6473 6368 6f6f 6c32 352e 7275 6e65 7363  dschool25.runesc
0000990: 6170 652e 636f 6d00 5056 5020 576f 726c  ape.com.PVP Worl
00009a0: 6400 0100 e801 6600 0000 016f 6c64 7363  d.....f....oldsc
00009b0: 686f 6f6c 3538 2e72 756e 6573 6361 7065  hool58.runescape
00009c0: 2e63 6f6d 0042 6c61 7374 2046 7572 6e61  .com.Blast Furna
00009d0: 6365 0001 0120 016d 0000 0401 6f6c 6473  ce... .m....olds
00009e0: 6368 6f6f 6c36 352e 7275 6e65 7363 6170  chool65.runescap
00009f0: 652e 636f 6d00 4869 6768 2052 6973 6b20  e.com.High Risk 
0000a00: 576f 726c 6400 0101 2501 5e00 0000 016f  World...%.^....o
0000a10: 6c64 7363 686f 6f6c 3530 2e72 756e 6573  ldschool50.runes
0000a20: 6361 7065 2e63 6f6d 0054 7a48 6161 7220  cape.com.TzHaar 
0000a30: 4669 6768 7420 5069 7400 0101 2f01 5600  Fight Pit.../.V.
0000a40: 0000 016f 6c64 7363 686f 6f6c 3432 2e72  ...oldschool42.r
0000a50: 756e 6573 6361 7065 2e63 6f6d 0052 6f6c  unescape.com.Rol
0000a60: 652d 706c 6179 696e 6700 0101 3101 5500  e-playing...1.U.
0000a70: 0000 016f 6c64 7363 686f 6f6c 3431 2e72  ...oldschool41.r
0000a80: 756e 6573 6361 7065 2e63 6f6d 0052 756e  unescape.com.Run
0000a90: 6e69 6e67 202d 206c 6177 2072 756e 6500  ning - law rune.
0000aa0: 0101 3901 6500 0000 016f 6c64 7363 686f  ..9.e....oldscho
0000ab0: 6f6c 3537 2e72 756e 6573 6361 7065 2e63  ol57.runescape.c
0000ac0: 6f6d 002d 0001 013a 014d 0000 0001 6f6c  om.-...:.M....ol
0000ad0: 6473 6368 6f6f 6c33 332e 7275 6e65 7363  dschool33.runesc
0000ae0: 6170 652e 636f 6d00 4761 6d65 7320 526f  ape.com.Games Ro
0000af0: 6f6d 2c20 526f 6775 6573 2720 4465 6e00  om, Rogues' Den.
0000b00: 0101 4b01 7600 0000 016f 6c64 7363 686f  ..K.v....oldscho
0000b10: 6f6c 3734 2e72 756e 6573 6361 7065 2e63  ol74.runescape.c
0000b20: 6f6d 002d 0001 014d 014e 0000 0001 6f6c  om.-...M.N....ol
0000b30: 6473 6368 6f6f 6c33 342e 7275 6e65 7363  dschool34.runesc
0000b40: 6170 652e 636f 6d00 4361 7374 6c65 2057  ape.com.Castle W
0000b50: 6172 7320 3100 0101 4f01 7510 0000 016f  ars 1...O.u....o
0000b60: 6c64 7363 686f 6f6c 3733 2e72 756e 6573  ldschool73.runes
0000b70: 6361 7065 2e63 6f6d 0031 3735 3020 736b  cape.com.1750 sk
0000b80: 696c 6c20 746f 7461 6c00 0101 5001 6e00  ill total...P.n.
0000b90: 0000 816f 6c64 7363 686f 6f6c 3636 2e72  ...oldschool66.r
0000ba0: 756e 6573 6361 7065 2e63 6f6d 0031 3530  unescape.com.150
0000bb0: 3020 736b 696c 6c20 746f 7461 6c00 0101  0 skill total...
0000bc0: 6101 3600 0000 016f 6c64 7363 686f 6f6c  a.6....oldschool
0000bd0: 3130 2e72 756e 6573 6361 7065 2e63 6f6d  10.runescape.com
0000be0: 004b 6f75 7265 6e64 2047 726f 7570 2041  .Kourend Group A
0000bf0: 6374 6976 6974 7900 0101 7001 3500 0000  ctivity...p.5...
0000c00: 016f 6c64 7363 686f 6f6c 392e 7275 6e65  .oldschool9.rune
0000c10: 7363 6170 652e 636f 6d00 2d00 0102 0701  scape.com.-.....
0000c20: 3e00 0000 216f 6c64 7363 686f 6f6c 3138  >...!oldschool18
0000c30: 2e72 756e 6573 6361 7065 2e63 6f6d 0042  .runescape.com.B
0000c40: 6f75 6e74 7920 576f 726c 6400 0102 1b01  ounty World.....
0000c50: 3d00 0040 016f 6c64 7363 686f 6f6c 3137  =..@.oldschool17
0000c60: 2e72 756e 6573 6361 7065 2e63 6f6d 004c  .runescape.com.L
0000c70: 4d53 2043 6f6d 7065 7469 7469 7665 0001  MS Competitive..
0000c80: 03cd 012e 0000 0001 6f6c 6473 6368 6f6f  ........oldschoo
0000c90: 6c32 2e72 756e 6573 6361 7065 2e63 6f6d  l2.runescape.com
0000ca0: 0054 7261 6465 202d 204d 656d 6265 7273  .Trade - Members
0000cb0: 0001 0430 0000 0000 0000 0000 0000 0000  ...0............
0000cc0: 0000 0000 0000 0000 0000 0000 0000 0000  ................
0000cd0: 0000 0000 0000 0000 0000 0000 0000 0000  ................
0000ce0: 0000 0000 0000 0000 0000 0000 0000 0000  ................
0000cf0: 0000 0000 0000 0000 0000 0000 0000 0000  ................
0000d00: 0000 0000 0000 0000 0000 0000 0000 0000  ................
0000d10: 0000 0000 0000 0000 0000 0000 0000 0000  ................
0000d20: 0000 0000 0000 0000 0000 0000 0000 0000  ................
0000d30: 0000 0000 0000 0000 0000 0000 0000 0000  ................
0000d40: 0000 0000 0000 0000 0000 0000 0000 0000  ................
0000d50: 0000 0000 0000 0000 0000 0000 0000 0000  ................
0000d60: 0000 0000 0000 0000 0000 0000 0000 0000  ................
0000d70: 0000 0000 0000 0000 0000 0000 0000 0000  ................
0000d80: 0000 0000 0000 0000 0000 0000 0000 0000  ................
0000d90: 0000 0000 0000 0000 0000 0000 0000 0000  ................
0000da0: 0000 0000 0000 0000 0000 0000 0000 0000  ................
0000db0: 0000 0000 0000 0000 0000 0000 0000 0000  ................
0000dc0: 0000 0000 0000 0000 0000 0000 0000 0000  ................
0000dd0: 0000 0000 0000 0000 0000 0000 0000 0000  ................
0000de0: 0000 0000 0000 0000 0000 0000 0000 0000  ................
0000df0: 0000 0000 0000 0000 0000 0000 0000 0000  ................
0000e00: 0000 0000 0000 0000 0000 0000 0000 0000  ................
0000e10: 0000 0000 0000 0000 0000 0000 0000 0000  ................
0000e20: 0000 0000 0000 0000 0000 0000 0000 0000  ................
0000e30: 0000 0000 0000 0000 0000 0000 0000 0000  ................
0000e40: 0000 0000 0000 0000 0000 0000 0000 0000  ................
0000e50: 0000 0000 0000 0000 0000 0000 0000 0000  ................
0000e60: 0000 0000 0000 0000 0000 0000 0000 0000  ................
0000e70: 0000 0000 0000 0000 0000 0000 0000 0000  ................
0000e80: 0000 0000 0000 0000 0000 0000 0000 0000  ................
0000e90: 0000 0000 0000 0000 0000 0000 0000 0000  ................
0000ea0: 0000 0000 0000 0000 0000 0000 0000 0000  ................
0000eb0: 0000 0000 0000 0000 0000 0000 0000 0000  ................
0000ec0: 0000 0000 0000 0000 0000 0000 0000 0000  ................
0000ed0: 0000 0000 0000 0000 0000 0000 0000 0000  ................
0000ee0: 0000 0000 0000 0000 0000 0000 0000 0000  ................
0000ef0: 0000 0000 0000 0000 0000 0000 0000 0000  ................
0000f00: 0000 0000 0000 0000 0000 0000 0000 0000  ................
0000f10: 0000 0000 0000 0000 0000 0000 0000 0000  ................
0000f20: 0000 0000 0000 0000 0000 0000 0000 0000  ................
0000f30: 0000 0000 0000 0000 0000 0000 0000 0000  ................
0000f40: 0000 0000 0000 0000 0000 0000 0000 0000  ................
0000f50: 0000 0000 0000 0000 0000 0000 0000 0000  ................
0000f60: 0000 0000 0000 0000 0000 0000 0000 0000  ................
0000f70: 0000 0000 0000 0000 0000 0000 0000 0000  ................
0000f80: 0000 0000 0000 0000 0000 0000 0000 0000  ................
0000f90: 0000 0000 0000 0000 0000 0000 0000 0000  ................
0000fa0: 0000 0000 0000 0000 0000 0000 0000 0000  ................
0000fb0: 0000 0000 0000 0000 0000 0000 0000 0000  ................
0000fc0: 0000 0000 0000 0000 0000 0000 0000 0000  ................
0000fd0: 0000 0000 0000 0000 0000 0000 0000 0000  ................
0000fe0: 0000 0000 0000 0000 0000 0000 0000 0000  ................
0000ff0: 0000 0000 0000 0000 0000 0000 0000 0000  ................
0001000: 0000 0000 0000 0000 0000 0000 0000 0000  ................
0001010: 0000 0000 0000 0000 0000 0000 0000 0000  ................
0001020: 0000 0000 0000 0000 0000 0000 0000 0000  ................
0001030: 0000 0000 0000 0000 0000 0000 0000 0000  ................
0001040: 0000 0000 0000 0000 0000 0000 0000 0000  ................
0001050: 0000 0000 0000 0000 0000 0000 0000 0000  ................
0001060: 0000 0000 0000 0000 0000 0000 0000 0000  ................
0001070: 0000 0000 0000 0000 0000 0000 0000 0000  ................
0001080: 0000 0000 0000 0000 0000 0000 0000 0000  ................
0001090: 0000 0000 0000 0000 0000 0000 0000 0000  ................
00010a0: 0000 0000 0000 0000 0000 0000 0000 0000  ................
00010b0: 0000 0000 0000 0000 0000 0000 0000 0000  ................
00010c0: 0000 0000 0000 0000 0000 0000 0000 0000  ................
00010d0: 0000 0000 0000 0000 0000 0000 0000 0000  ................
00010e0: 0000 0000 0000 0000 0000 0000 0000 0000  ................
00010f0: 0000 0000 0000 0000 0000 0000 0000 0000  ................
0001100: 0000 0000 0000 0000 0000 0000 0000 0000  ................
0001110: 0000 0000 0000 0000 0000 0000 0000 0000  ................
0001120: 0000 0000 0000 0000 0000 0000 0000 0000  ................
0001130: 0000 0000 0000 0000 0000 0000 0000 0000  ................
0001140: 0000 0000 0000 0000 0000 0000 0000 0000  ................
0001150: 0000 0000 0000 0000 0000 0000 0000 0000  ................
0001160: 0000 0000 0000 0000 0000 0000 0000 0000  ................
0001170: 0000 0000 0000 0000 0000 0000 0000 0000  ................
0001180: 0000 0000 0000 0000 0000 0000 0000 0000  ................
0001190: 0000 0000 0000 0000 0000 0000 0000 0000  ................
00011a0: 0000 0000 0000 0000 0000 0000 0000 0000  ................
00011b0: 0000 0000 0000 0000 0000 0000 0000 0000  ................
00011c0: 0000 0000 0000 0000 0000 0000 0000 0000  ................
00011d0: 0000 0000 0000 0000 0000 0000 0000 0000  ................
00011e0: 0000 0000 0000 0000 0000 0000 0000 0000  ................
00011f0: 0000 0000 0000 0000 0000 0000 0000 0000  ................
0001200: 0000 0000 0000 0000 0000 0000 0000 0000  ................
0001210: 0000 0000 0000 0000 0000 0000 0000 0000  ................
0001220: 0000 0000 0000 0000 0000 0000 0000 0000  ................
0001230: 0000 0000 0000 0000 0000 0000 0000 0000  ................
0001240: 0000 0000 0000 0000 0000 0000 0000 0000  ................
0001250: 0000 0000 0000 0000 0000 0000 0000 0000  ................
0001260: 0000 0000 0000 0000 0000 0000 0000 0000  ................
0001270: 0000 0000 0000 0000 0000 0000 0000 0000  ................
0001280: 0000 0000 0000 0000 0000 0000 0000 0000  ................
0001290: 0000 0000 0000 0000 0000 0000 0000 0000  ................
00012a0: 0000 0000 0000 0000 0000 0000 0000 0000  ................
00012b0: 0000 0000 0000 0000 0000 0000 0000 0000  ................
00012c0: 0000 0000 0000 0000 0000 0000 0000 0000  ................
00012d0: 0000 0000 0000 0000 0000 0000 0000 0000  ................
00012e0: 0000 0000 0000 0000 0000 0000 0000 0000  ................
00012f0: 0000 0000 0000 0000 0000 0000 0000 0000  ................
0001300: 0000 0000 0000 0000 0000 0000 0000 0000  ................
0001310: 0000 0000 0000 0000 0000 0000 0000 0000  ................
0001320: 0000 0000 0000 0000 0000 0000 0000 0000  ................
0001330: 0000 0000 0000 0000 0000 0000 0000 0000  ................
0001340: 0000 0000 0000 0000 0000 0000 0000 0000  ................
0001350: 0000 0000 0000 0000 0000 0000 0000 0000  ................
0001360: 0000 0000 0000 0000 0000 0000 0000 0000  ................
0001370: 0000 0000 0000 0000 0000 0000 0000 0000  ................
0001380: 0000 0000 0000 0000                      ........
